<svg xmlns="http://www.w3.org/2000/svg" width="125.316" height="24.893" viewBox="0 0 125.316 24.893">
  <g id="Group_3" data-name="Group 3" opacity="0.9">
    <rect id="Rectangle_4" data-name="Rectangle 4" width="125.316" height="1.532" fill="#fff"/>
    <rect id="Rectangle_5" data-name="Rectangle 5" width="125.316" height="1.532" transform="translate(0 2.596)" fill="#fff"/>
    <rect id="Rectangle_6" data-name="Rectangle 6" width="125.316" height="1.532" transform="translate(0 5.191)" fill="#fff"/>
    <rect id="Rectangle_7" data-name="Rectangle 7" width="125.316" height="1.532" transform="translate(0 7.787)" fill="#fff"/>
    <rect id="Rectangle_8" data-name="Rectangle 8" width="125.316" height="1.532" transform="translate(0 10.383)" fill="#fff"/>
    <rect id="Rectangle_9" data-name="Rectangle 9" width="125.316" height="1.532" transform="translate(0 12.978)" fill="#fff"/>
    <rect id="Rectangle_10" data-name="Rectangle 10" width="125.316" height="1.532" transform="translate(0 15.574)" fill="#fff"/>
    <rect id="Rectangle_11" data-name="Rectangle 11" width="125.316" height="1.532" transform="translate(0 18.17)" fill="#fff"/>
    <rect id="Rectangle_12" data-name="Rectangle 12" width="125.316" height="1.532" transform="translate(0 20.765)" fill="#fff"/>
    <rect id="Rectangle_13" data-name="Rectangle 13" width="125.316" height="1.532" transform="translate(0 23.361)" fill="#fff"/>
  </g>
</svg>
